{
  "tasks": [
    {
      "id": 1,
      "text": "Go for a walk",
      "day": "May 5th 12:30pm",
      "reminder": true
    },
    {
      "id": 2,
      "text": "Go biking",
      "day": "May 6th 04:23pm",
      "reminder": true
    }
  ]
}